{
    "openapi": "3.0.0",
    "info": {
        "title": "Lazy Pos",
        "version": "0.1"
    },
    "paths": {
        "/api/login": {
            "post": {
                "tags": [
                    "Auth"
                ],
                "operationId": "App\\Http\\Controllers\\AuthController::login",
                "requestBody": {
                    "content": {
                        "application/x-www-form-urlencoded": {
                            "schema": {
                                "required": [
                                    "email",
                                    "password"
                                ],
                                "properties": {
                                    "email": {
                                        "type": "string",
                                        "example": "user1@mail.com"
                                    },
                                    "password": {
                                        "type": "string",
                                        "format": "password",
                                        "example": "PassWord12345"
                                    }
                                },
                                "type": "object"
                            }
                        }
                    }
                },
                "responses": {
                    "200": {
                        "description": "Success"
                    }
                }
            }
        },
        "/api/register": {
            "post": {
                "tags": [
                    "Auth"
                ],
                "operationId": "App\\Http\\Controllers\\AuthController::register",
                "requestBody": {
                    "required": true,
                    "content": {
                        "application/x-www-form-urlencoded": {
                            "schema": {
                                "required": [
                                    "email",
                                    "password",
                                    "password_confirmation",
                                    "firstName",
                                    "shopName",
                                    "phone"
                                ],
                                "properties": {
                                    "email": {
                                        "type": "string",
                                        "format": "password",
                                        "example": "user1@mail.com"
                                    },
                                    "password": {
                                        "type": "string",
                                        "format": "password",
                                        "example": "PassWord12345"
                                    },
                                    "password_confirmation": {
                                        "type": "string",
                                        "format": "password",
                                        "example": "PassWord12345"
                                    },
                                    "firstName": {
                                        "type": "string",
                                        "format": "string",
                                        "example": "John"
                                    },
                                    "lastName": {
                                        "type": "string",
                                        "format": "string",
                                        "example": "Doe"
                                    },
                                    "shopName": {
                                        "type": "string",
                                        "format": "string",
                                        "example": "Cat Shop"
                                    },
                                    "phone": {
                                        "type": "string",
                                        "format": "string",
                                        "example": "0865656576"
                                    }
                                },
                                "type": "object"
                            }
                        }
                    }
                },
                "responses": {
                    "200": {
                        "description": "Success"
                    }
                }
            }
        },
        "/api/product": {
            "get": {
                "tags": [
                    "Product"
                ],
                "description": "Get All Product",
                "operationId": "App\\Http\\Controllers\\ProductController::get",
                "responses": {
                    "200": {
                        "description": "Success"
                    }
                },
                "security": [
                    {
                        "bearer": []
                    }
                ]
            },
            "post": {
                "tags": [
                    "Product"
                ],
                "operationId": "App\\Http\\Controllers\\ProductController::create",
                "requestBody": {
                    "content": {
                        "multipart/form-data": {
                            "schema": {
                                "required": [
                                    "name",
                                    "price"
                                ],
                                "properties": {
                                    "name": {
                                        "type": "string",
                                        "example": "Sugar"
                                    },
                                    "price": {
                                        "type": "integer",
                                        "example": "40000"
                                    },
                                    "photo": {
                                        "type": "file"
                                    }
                                },
                                "type": "object"
                            }
                        }
                    }
                },
                "responses": {
                    "200": {
                        "description": "Success"
                    }
                },
                "security": [
                    {
                        "bearer": []
                    }
                ]
            }
        },
        "/api/product/{id}": {
            "get": {
                "tags": [
                    "Product"
                ],
                "description": "Get Product By Id",
                "operationId": "App\\Http\\Controllers\\ProductController::getById",
                "parameters": [
                    {
                        "name": "id",
                        "in": "path",
                        "required": true
                    }
                ],
                "responses": {
                    "200": {
                        "description": "Success"
                    }
                },
                "security": [
                    {
                        "bearer": []
                    }
                ]
            },
            "post": {
                "tags": [
                    "Product"
                ],
                "description": "Update Product",
                "operationId": "App\\Http\\Controllers\\ProductController::update",
                "parameters": [
                    {
                        "name": "id",
                        "in": "path",
                        "required": true
                    }
                ],
                "requestBody": {
                    "content": {
                        "multipart/form-data": {
                            "schema": {
                                "required": [
                                    "name",
                                    "price"
                                ],
                                "properties": {
                                    "name": {
                                        "type": "string",
                                        "example": "Sugar"
                                    },
                                    "price": {
                                        "type": "integer",
                                        "example": "40000"
                                    },
                                    "photo": {
                                        "type": "file"
                                    }
                                },
                                "type": "object"
                            }
                        }
                    }
                },
                "responses": {
                    "200": {
                        "description": "Success"
                    }
                },
                "security": [
                    {
                        "bearer": []
                    }
                ]
            },
            "delete": {
                "tags": [
                    "Product"
                ],
                "description": "Delete Product",
                "operationId": "App\\Http\\Controllers\\ProductController::delete",
                "parameters": [
                    {
                        "name": "id",
                        "in": "path",
                        "required": true
                    }
                ],
                "responses": {
                    "200": {
                        "description": "Success"
                    }
                },
                "security": [
                    {
                        "bearer": []
                    }
                ]
            }
        }
    },
    "components": {
        "securitySchemes": {
            "bearer": {
                "type": "http",
                "name": "Authorization",
                "in": "header",
                "bearerFormat": "JWT",
                "scheme": "Bearer"
            }
        }
    }
}